{
	"compiler": {
		"version": "0.8.6+commit.11564f7e"
	},
	"language": "Solidity",
	"output": {
		"abi": [
			{
				"anonymous": false,
				"inputs": [
					{
						"indexed": false,
						"internalType": "uint256",
						"name": "_itemIndex",
						"type": "uint256"
					},
					{
						"indexed": false,
						"internalType": "uint256",
						"name": "_step",
						"type": "uint256"
					},
					{
						"indexed": false,
						"internalType": "address",
						"name": "_itemAddress",
						"type": "address"
					}
				],
				"name": "SupplyChainStep",
				"type": "event"
			},
			{
				"inputs": [],
				"name": "_owner",
				"outputs": [
					{
						"internalType": "address",
						"name": "",
						"type": "address"
					}
				],
				"stateMutability": "view",
				"type": "function"
			},
			{
				"inputs": [
					{
						"internalType": "string",
						"name": "_identifier",
						"type": "string"
					},
					{
						"internalType": "uint256",
						"name": "_itemPrice",
						"type": "uint256"
					}
				],
				"name": "createItem",
				"outputs": [],
				"stateMutability": "nonpayable",
				"type": "function"
			},
			{
				"inputs": [],
				"name": "isOwner",
				"outputs": [
					{
						"internalType": "bool",
						"name": "",
						"type": "bool"
					}
				],
				"stateMutability": "view",
				"type": "function"
			},
			{
				"inputs": [
					{
						"internalType": "uint256",
						"name": "",
						"type": "uint256"
					}
				],
				"name": "items",
				"outputs": [
					{
						"internalType": "contract Item",
						"name": "_item",
						"type": "address"
					},
					{
						"internalType": "enum ItemManager.SupplyChainState",
						"name": "_state",
						"type": "uint8"
					},
					{
						"internalType": "string",
						"name": "_identifier",
						"type": "string"
					},
					{
						"internalType": "uint256",
						"name": "_itemPrice",
						"type": "uint256"
					}
				],
				"stateMutability": "view",
				"type": "function"
			},
			{
				"inputs": [
					{
						"internalType": "uint256",
						"name": "_itemIndex",
						"type": "uint256"
					}
				],
				"name": "triggerDelivery",
				"outputs": [],
				"stateMutability": "nonpayable",
				"type": "function"
			},
			{
				"inputs": [
					{
						"internalType": "uint256",
						"name": "_itemIndex",
						"type": "uint256"
					}
				],
				"name": "triggerPayment",
				"outputs": [],
				"stateMutability": "payable",
				"type": "function"
			}
		],
		"devdoc": {
			"kind": "dev",
			"methods": {
				"isOwner()": {
					"details": "Returns true if the caller is the current owner."
				}
			},
			"version": 1
		},
		"userdoc": {
			"kind": "user",
			"methods": {},
			"version": 1
		}
	},
	"settings": {
		"compilationTarget": {
			"ItemManager.sol": "ItemManager"
		},
		"evmVersion": "berlin",
		"libraries": {},
		"metadata": {
			"bytecodeHash": "ipfs"
		},
		"optimizer": {
			"enabled": false,
			"runs": 200
		},
		"remappings": []
	},
	"sources": {
		"Item.sol": {
			"keccak256": "0xbdae2b208944ff47c65c83af4e460344ce37386db5ad95ba100ccf26a77ab9bc",
			"license": "MIT",
			"urls": [
				"bzz-raw://716a1e03b2c07d13e6a94e209c943f270c942dd42f36e13056a5ff75b34b548f",
				"dweb:/ipfs/QmdZPpPj37qqCnGkFNUWTYjp1wG2c8V9JWwgc3RK52DfR1"
			]
		},
		"ItemManager.sol": {
			"keccak256": "0x6558f9e7f0b81b488f68ce7eecfd70cca9fe40c1c6977cc967ae2d8ab66f7777",
			"license": "MIT",
			"urls": [
				"bzz-raw://77dfdf0cd5d3fa66b2c06db5a73ab8c95107f8d7d70761f3c7f629af7b587ea4",
				"dweb:/ipfs/QmdnibjG6v5F5TZEDFkeBMeVBvfzdqC2v61XhQtGwrSzHx"
			]
		},
		"Ownable.sol": {
			"keccak256": "0x504aafe025cb08956a88349ecaebabc4dd2bea50a342d6d41bce4ef9870a9fe6",
			"license": "MIT",
			"urls": [
				"bzz-raw://da10e2b18a6cb802cb1f057a357aef8625485a31077955abdb8ba86e0712427b",
				"dweb:/ipfs/QmaqjAfe2aUX3uzEH8T2HEXvVc5m2RPko5XstJDLaxm4ho"
			]
		}
	},
	"version": 1
}